asd|asd|imenko|prezimic|1|admin@gmail.com|administrator
sad|123|nikolina|trivunic|2|trivunic99@gmail.com|member|222|0652091565|Cankareva 8, Novi Sad|student|17.12.1999.
jove9|123|jovan|jovanovic|3|jovanj98@gmail.com|member|333|0652131613|Kopernikova 23, Novi Sad|odrasli|12.12.1998
as|as|lola|lolic|4|lole97@gmail.com|librarian
simsBibl8008|123|nikolina|trivunic|5|nata96@gmail.com|librarian
anto|123|antonija|antonojic|6|anton96@gmail.com|member|666|0625468794|Puskinova 18, Novi Sad|penzioneri|8.6.1996.
bajo|123|baja|bajic|7|bajaCar@gmail.com|member|777|0627893256|Bulevar Oslobodjenja 7, Novi sad|penzioneri|3.2.1998.
gago|123|dragan|draganic|8|drago@gmail.com|member|888|0649542532|Kisacka 87, Novi Sad|deca|5.6.1997.
bor|123|nikolina|borkic|9|bora99@gmail.com|librarian
simsBibl8768|69_!1951|velibor|veliborovic|10|vele@gmail.com|member|1010|0657896515|Janka Cmelika 23, Novi Sad|pocasni|14.5.1996.
simsBibl9855|49_!8829|veljko|veljkovic|11|velje@gmail.com|member|1111|0631564568|Cankareva 23, Novi Sad|pocasni|16.3.1998.
simsBibl2259|35_!9978|draza|drazic|12|draza@gmail.com|member|1212|0639846565|Puskinova 56, Novi Sad|student|8.9.1999.
simsBibl5742|72_!7231|dunja|dunjic|13|dunjica@gmail.com|member|1313|0651654893|Kisacka 23, Novi Sad|odrasli|9.9.1997.

zvone|123|zvonko|bogdan|14|zvonkoB@gmail.com|member|1414|0639847474|Narodnog Fronta 15, Novi Sad|deca|4.4.1997.
simsBibl4448|63_!3294|nikolina|ivanovic|15|ive@gmail.com|member|1515|0648999898|Bulevar Evrope 18, Novi Sad|student|28.7.1996.
